<?xml version="1.0" encoding="UTF-8" standalone="no"?>
<!-- Created with Inkscape (http://www.inkscape.org/) -->
<svg version="1.1" id="svg2" xml:space="preserve" width="2040.342" height="502.77795" viewBox="0 0 2040.3421 502.77793" xmlns:xlink="http://www.w3.org/1999/xlink" xmlns="http://www.w3.org/2000/svg" xmlns:svg="http://www.w3.org/2000/svg" xmlns:rdf="http://www.w3.org/1999/02/22-rdf-syntax-ns#" xmlns:cc="http://creativecommons.org/ns#" xmlns:dc="http://purl.org/dc/elements/1.1/"><metadata id="metadata8"><rdf:RDF><cc:Work rdf:about=""><dc:format>image/svg+xml</dc:format><dc:type rdf:resource="http://purl.org/dc/dcmitype/StillImage"/></cc:Work></rdf:RDF></metadata><defs id="defs6"><linearGradient id="linearGradient3"><stop style="stop-color:#ef2d57;stop-opacity:0.89803922;" offset="0.35637018" id="stop3"/><stop style="stop-color:#ffb800;stop-opacity:1;" offset="1" id="stop4"/></linearGradient><linearGradient id="linearGradient4719"><stop style="stop-color:#000000;stop-opacity:1;" offset="0" id="stop4715"/><stop style="stop-color:#000000;stop-opacity:0;" offset="1" id="stop4717"/></linearGradient><linearGradient x1="1.1699511" y1="0.19092996" x2="-0.2205788" y2="-0.22601008" gradientUnits="userSpaceOnUse" gradientTransform="matrix(-139.45511,-135.52185,-135.52185,139.45511,177.4727,131.75308)" spreadMethod="pad" id="linearGradient28"><stop style="stop-color:#e88813;stop-opacity:1;" offset="0" id="stop24"/><stop style="stop-color:#b30c0c;stop-opacity:0.97720796;" offset="1" id="stop26"/></linearGradient><clipPath clipPathUnits="userSpaceOnUse" id="clipPath38"><path d="M 0,127.984 H 415.474 V 0 H 0 Z" id="path36"/></clipPath><clipPath clipPathUnits="userSpaceOnUse" id="clipPath38-2"><path d="M 0,127.984 H 415.474 V 0 H 0 Z" id="path36-9"/></clipPath><clipPath clipPathUnits="userSpaceOnUse" id="clipPath38-6"><path d="M 0,127.984 H 415.474 V 0 H 0 Z" id="path36-1"/></clipPath><linearGradient xlink:href="#linearGradient4719" id="linearGradient52080" gradientUnits="userSpaceOnUse" x1="14.177" y1="63.9925" x2="214.54475" y2="63.9925"/><linearGradient xlink:href="#linearGradient4719" id="linearGradient52082" gradientUnits="userSpaceOnUse" x1="14.177" y1="63.9925" x2="214.54475" y2="63.9925"/><linearGradient xlink:href="#linearGradient4719" id="linearGradient52084" gradientUnits="userSpaceOnUse" x1="14.177" y1="63.9925" x2="214.54475" y2="63.9925"/><linearGradient xlink:href="#linearGradient4719" id="linearGradient52086" gradientUnits="userSpaceOnUse" x1="14.177" y1="25.231001" x2="201.314" y2="102.754"/><linearGradient xlink:href="#linearGradient3" id="linearGradient2" x1="5.9501991" y1="-163.47841" x2="295.16028" y2="-18.085602" gradientUnits="userSpaceOnUse"/></defs><g id="g10" transform="matrix(1.3333333,0,0,-1.3333333,-20.163573,379.78895)">
<g id="g52076" transform="translate(905.67599,-132.20466)"><g id="g10-4" transform="translate(-904.23031,302.74138)"><g id="g3308" transform="matrix(3.3002013,0,0,3.3002013,-5.959854,-280.92451)"><g id="g12-7" style="stroke:url(#linearGradient52086);fill-opacity:1;fill:url(#linearGradient2)"><g id="g14-8" style="stroke:url(#linearGradient52084);fill-opacity:1.0;fill:url(#linearGradient2)"><g id="g20-4" style="stroke:url(#linearGradient52082);fill-opacity:1.0;fill:url(#linearGradient2)"><g id="g22-5" style="stroke:url(#linearGradient52080);fill-opacity:1.0;fill:url(#linearGradient2)"><path d="m 25.228,113.805 c -6.079,0 -11.051,-4.973 -11.051,-11.051 v 0 -77.523 c 0,-6.079 4.972,-11.051 11.051,-11.051 v 0 h 165.035 c 6.078,0 11.051,4.973 11.051,11.051 v 0 18.26 c 0,2.022 0.803,3.962 2.234,5.393 v 0 l 9.096,9.096 c 2.54,2.539 2.533,6.657 -0.013,9.188 v 0 l -9.067,9.017 c -1.44,1.431 -2.25,3.379 -2.25,5.409 v 0 21.16 c 0,6.078 -4.973,11.051 -11.051,11.051 v 0 z" style="fill:url(#linearGradient2);stroke:#000000;stroke-opacity:0;fill-opacity:1.0" id="path30-0"/></g></g></g></g><g id="g32-3"><g id="g34-6" clip-path="url(#clipPath38-6)"><g id="g40-1" transform="translate(175.9982,95.8645)"><path d="m 0,0 v 0 c 4.074,0 7.376,-3.302 7.376,-7.376 v -48.993 c 0,-4.074 -3.302,-7.376 -7.376,-7.376 -4.074,0 -7.376,3.302 -7.376,7.376 V -7.376 C -7.376,-3.302 -4.074,0 0,0" style="fill:#ffffff;fill-opacity:1;fill-rule:nonzero;stroke:none" id="path42-0"/></g><g id="g44-6" transform="translate(152.1193,64.9934)"><path d="M 0,0 H -0.506 C -0.57,0 -0.633,-0.008 -0.698,-0.01 -0.762,-0.008 -0.825,0 -0.89,0 h -7.283 c -3.929,0 -7.359,-2.965 -7.613,-6.885 -0.278,-4.296 3.124,-7.867 7.361,-7.867 0.776,0 1.343,-0.754 1.111,-1.494 -0.658,-2.088 -2.341,-3.751 -4.547,-4.333 -2.074,-0.547 -4.276,-0.821 -6.605,-0.821 -4.007,0 -7.574,0.865 -10.7,2.595 -3.127,1.73 -5.57,4.144 -7.331,7.24 -1.761,3.096 -2.641,6.617 -2.641,10.564 0,4.006 0.88,7.558 2.641,10.654 1.761,3.097 4.219,5.493 7.377,7.195 3.156,1.698 6.768,2.549 10.836,2.549 4.681,0 8.865,-1.269 12.55,-3.807 2.341,-1.612 5.524,-1.588 7.757,0.171 3.48,2.741 3.289,8.045 -0.315,10.452 -1.7,1.136 -3.538,2.112 -5.512,2.928 -4.553,1.881 -9.623,2.823 -15.208,2.823 -6.679,0 -12.69,-1.412 -18.03,-4.235 -5.344,-2.822 -9.517,-6.738 -12.522,-11.747 -3.005,-5.008 -4.508,-10.67 -4.508,-16.983 0,-6.315 1.503,-11.975 4.508,-16.984 3.005,-5.009 7.148,-8.924 12.43,-11.747 5.282,-2.824 11.231,-4.235 17.849,-4.235 4.613,0 9.197,0.699 13.751,2.095 0.045,0.014 0.091,0.028 0.136,0.042 7.104,2.202 11.884,8.86 11.884,16.297 v 9.047 C 6.486,-2.904 3.583,0 0,0" style="fill:#ffffff;fill-opacity:1;fill-rule:nonzero;stroke:none" id="path46-3"/></g><g id="g48-20" transform="translate(90.5807,88.5798)"><path d="m 0,0 v -49.176 c 0,-4.023 -3.262,-7.285 -7.286,-7.285 h -1.381 c -2.181,0 -4.247,0.977 -5.631,2.662 l -24.229,29.505 c -1.804,2.197 -5.368,0.921 -5.368,-1.922 v -22.96 c 0,-4.023 -3.261,-7.285 -7.285,-7.285 -4.023,0 -7.285,3.262 -7.285,7.285 V 0 c 0,4.024 3.262,7.285 7.285,7.285 h 1.468 c 2.184,0 4.253,-0.979 5.636,-2.669 l 24.135,-29.475 c 1.802,-2.202 5.37,-0.927 5.37,1.918 V 0 c 0,4.024 3.261,7.285 7.285,7.285 C -3.262,7.285 0,4.024 0,0" style="fill:#ffffff;fill-opacity:1;fill-rule:nonzero;stroke:none" id="path50-6"/></g></g></g><g aria-label="MOBIFREE" transform="scale(1,-1)" id="text56-1" style="font-weight:600;font-size:32.9113px;font-family:Montserrat;-inkscape-font-specification:'Montserrat Semi-Bold';letter-spacing:5.29875px;fill:#ffb800;fill-opacity:1;stroke-width:1.03625"><path d="m 243.12395,-52.473545 v -23.037911 h 3.52151 l 10.07086,16.817675 h -1.84303 l 9.9063,-16.817675 h 3.52151 l 0.0329,23.037911 h -4.04809 l -0.0329,-16.68603 h 0.85569 l -8.42529,14.053126 h -1.90886 l -8.55694,-14.053126 h 0.98734 v 16.68603 z" id="path2450" style="fill:#ffb800;fill-opacity:1"/><path d="m 290.6479,-52.144432 q -2.69873,0 -4.96961,-0.888605 -2.27088,-0.888605 -3.94935,-2.468348 -1.67848,-1.612653 -2.6,-3.751888 -0.92151,-2.172146 -0.92151,-4.739227 0,-2.567082 0.92151,-4.706316 0.92152,-2.172146 2.6,-3.751889 1.67847,-1.612653 3.94935,-2.501258 2.27088,-0.888606 4.9367,-0.888606 2.69872,0 4.93669,0.888606 2.27088,0.888605 3.94936,2.501258 1.67848,1.579743 2.59999,3.751889 0.92152,2.139234 0.92152,4.706316 0,2.567081 -0.92152,4.739227 -0.92151,2.172146 -2.59999,3.751888 -1.67848,1.579743 -3.94936,2.468348 -2.23797,0.888605 -4.90378,0.888605 z m -0.0329,-3.751888 q 1.7443,0 3.22531,-0.592404 1.481,-0.592403 2.56708,-1.678476 1.08607,-1.118984 1.67847,-2.567082 0.62532,-1.481008 0.62532,-3.258218 0,-1.777211 -0.62532,-3.225308 -0.5924,-1.481008 -1.67847,-2.567081 -1.08608,-1.118984 -2.56708,-1.711388 -1.48101,-0.592403 -3.22531,-0.592403 -1.7443,0 -3.22531,0.592403 -1.4481,0.592404 -2.56708,1.711388 -1.08607,1.086073 -1.71139,2.567081 -0.5924,1.448097 -0.5924,3.225308 0,1.744299 0.5924,3.225307 0.62532,1.481009 1.71139,2.599993 1.08607,1.086073 2.56708,1.678476 1.48101,0.592404 3.22531,0.592404 z" id="path2452" style="fill:#ffb800;fill-opacity:1"/><path d="m 312.86309,-52.473545 v -23.037911 h 10.7949 q 4.14683,0 6.31897,1.645565 2.17215,1.612654 2.17215,4.344292 0,1.843033 -0.85569,3.159485 -0.8557,1.283541 -2.3038,2.007589 -1.41518,0.691138 -3.09366,0.691138 l 0.59241,-1.184807 q 1.94176,0 3.48859,0.724048 1.54683,0.691138 2.43544,2.040501 0.92152,1.349363 0.92152,3.356953 0,2.962017 -2.27088,4.607582 -2.27088,1.645565 -6.74682,1.645565 z m 4.27847,-3.356953 h 6.91137 q 2.40252,0 3.68606,-0.789871 1.28355,-0.789871 1.28355,-2.53417 0,-1.711388 -1.28355,-2.501259 -1.28354,-0.822782 -3.68606,-0.822782 h -7.24049 v -3.324042 h 6.3848 q 2.23796,0 3.42277,-0.789871 1.21772,-0.789871 1.21772,-2.369614 0,-1.612653 -1.21772,-2.402525 -1.18481,-0.789871 -3.42277,-0.789871 h -6.05568 z" id="path2454" style="fill:#ffb800;fill-opacity:1"/><path d="m 343.20732,-52.473545 v -23.037911 h 4.27847 v 23.037911 z" id="path2456" style="fill:#ffb800;fill-opacity:1"/><path d="m 362.92123,-64.914017 h 11.48605 v 3.620243 h -11.48605 z m 0.36203,12.440472 h -4.27847 v -23.037911 h 16.81767 v 3.587332 h -12.5392 z" id="path2458" style="fill:#ffb800;fill-opacity:1"/><path d="m 385.26801,-52.473545 v -23.037911 h 9.47845 q 3.06075,0 5.2329,0.987339 2.20506,0.98734 3.38986,2.830372 1.18481,1.843033 1.18481,4.377203 0,2.53417 -1.18481,4.377203 -1.1848,1.810122 -3.38986,2.797461 -2.17215,0.954428 -5.2329,0.954428 h -7.10884 l 1.90886,-1.941767 v 8.655672 z m 15.07337,0 -5.8253,-8.35947 h 4.57468 l 5.85821,8.35947 z m -10.7949,-8.194914 -1.90886,-2.040501 h 6.91138 q 2.83037,0 4.24555,-1.217718 1.4481,-1.217718 1.4481,-3.389864 0,-2.205057 -1.4481,-3.389864 -1.41518,-1.184806 -4.24555,-1.184806 h -6.91138 l 1.90886,-2.106324 z" id="path2460" style="fill:#ffb800;fill-opacity:1"/><path d="m 418.57431,-65.934267 h 11.45314 v 3.521509 h -11.45314 z m 0.32912,9.87339 h 12.99996 v 3.587332 h -17.27843 v -23.037911 h 16.81767 v 3.587332 h -12.5392 z" id="path2462" style="fill:#ffb800;fill-opacity:1"/><path d="m 445.92363,-65.934267 h 11.45314 v 3.521509 h -11.45314 z m 0.32912,9.87339 h 12.99996 v 3.587332 h -17.27843 v -23.037911 h 16.81767 v 3.587332 h -12.5392 z" id="path2464" style="fill:#ffb800;fill-opacity:1"/></g></g>
<text transform="scale(1,-1)" style="font-style:normal;font-variant:normal;font-weight:600;font-stretch:normal;font-size:32.9113px;line-height:1;font-family:Montserrat;-inkscape-font-specification:'Montserrat Semi-Bold';letter-spacing:5.29875px;writing-mode:lr-tb;fill:#a28887;fill-opacity:0.980392;fill-rule:nonzero;stroke:none;stroke-width:1.03625" id="text1705" x="240.03029" y="-52.473545"><tspan x="240.03029" y="-52.473545" id="tspan1703" style="fill:#a28887;fill-opacity:0.980392;stroke-width:1.03625"/></text></g></g></g></svg>